<?xml version="1.0" encoding="utf-8"?>
<svg version="1.1" xmlns="http://www.w3.org/2000/svg" xmlns:xlink="http://www.w3.org/1999/xlink" height="20" width="20">
  <defs>
    <path id="path-1" opacity="1" fill-rule="evenodd" d="M19.50000000000003,10.49999999999999 L0.5000000000000008,10.49999999999999 C0.22385762508460372,10.49999999999999 0,10.276142374915388 0,9.999999999999995 C0,9.723857625084602 0.22385762508460372,9.5 0.5000000000000008,9.5 L19.50000000000003,9.5 C19.776142374915427,9.5 20.00000000000003,9.723857625084602 20.00000000000003,9.999999999999995 C20.00000000000003,10.276142374915388 19.776142374915427,10.49999999999999 19.50000000000003,10.49999999999999Z"/>
    <path id="path-2" opacity="1" fill-rule="evenodd" d="M10.000000000000014,20 C9.723857625084614,20 9.500000000000007,19.7761423749154 9.500000000000007,19.5 L9.500000000000007,0.5 C9.500000000000007,0.22385762508460338 9.723857625084614,0 10.000000000000014,0 C10.276142374915416,0 10.500000000000023,0.22385762508460338 10.500000000000023,0.5 L10.500000000000023,19.5 C10.500000000000023,19.7761423749154 10.276142374915416,20 10.000000000000014,20Z"/>
  </defs>
  <g opacity="1">
    <g opacity="1">
      <use xlink:href="#path-1" fill="rgb(255,255,255)" fill-opacity="1"/>
    </g>
    <g opacity="1">
      <use xlink:href="#path-2" fill="rgb(255,255,255)" fill-opacity="1"/>
    </g>
  </g>
</svg>