<?xml version="1.0" encoding="utf-8"?>
<svg version="1.1" xmlns="http://www.w3.org/2000/svg" xmlns:xlink="http://www.w3.org/1999/xlink" height="7.183851270974856" width="4">
  <defs>
    <path id="path-1" opacity="1" fill-rule="evenodd" d="M5.4230435778250365,2.5571921108433284 L2.5793912623266184,5.355651907880279 C2.2573648198622482,5.670683544689803 1.7426351801380067,5.670683544689801 1.4206087376736365,5.355651907880279 L-1.4230435778247794,2.5571921108433284 C-1.5865029341941126,2.396901225598122 -1.636661055832982,2.1536097586518927 -1.5499284886533595,1.941738120937448 C-1.463195921473737,1.7298664832230035 -1.2568354360885226,1.591584434038133 -1.0278987369181125,1.591926267807395 L5.027898736918368,1.591926267807395 C5.256835436088778,1.591584434038132 5.463195921473994,1.7298664832230015 5.549928488653617,1.9417381209374465 C5.63666105583324,2.1536097586518914 5.586502934194369,2.396901225598122 5.4230435778250365,2.5571921108433284Z"/>
  </defs>
  <g transform="translate(2.0000000000001283, 3.5919256354874243) rotate(-90.00003218077504) translate(-2.0000000000001283, -3.5919256354874243)" opacity="1">
    <use xlink:href="#path-1" fill="rgb(143,157,175)" fill-opacity="1"/>
  </g>
</svg>