<?xml version="1.0" encoding="utf-8"?>
<svg version="1.1" xmlns="http://www.w3.org/2000/svg" xmlns:xlink="http://www.w3.org/1999/xlink" height="20" width="20">
  <defs>
    <path id="path-1" opacity="1" fill-rule="evenodd" d="M0,10 C0,4.484210968017578 4.4842529296875,0 10,0 C15.5157470703125,0 20,4.484210968017578 20,10 C20,15.515789031982422 15.5157470703125,20 10,20 C4.4842529296875,20 0,15.515789031982422 0,10 L8.5052490234375,13.642105102539062 L13.2210693359375,10.505264282226562 C13.578857421875,10.273681640625 13.578857421875,9.726314544677734 13.2210693359375,9.494735717773438 L8.5052490234375,6.3578948974609375 C8.105224609375,6.084209442138672 7.557861328125,6.378948211669922 7.557861328125,6.863155364990234 L7.557861328125,13.1368408203125 C7.557861328125,13.621051788330078 8.105224609375,13.915786743164062 8.5052490234375,13.642105102539062 L0,10Z"/>
  </defs>
  <g opacity="1">
    <use xlink:href="#path-1" fill="rgb(255,255,255)" fill-opacity="1"/>
  </g>
</svg>