<?xml version="1.0" encoding="utf-8"?>
<svg version="1.1" xmlns="http://www.w3.org/2000/svg" xmlns:xlink="http://www.w3.org/1999/xlink" height="12.000000000000057" width="12.000000000000455">
  <defs>
    <ellipse id="ellipse-1" opacity="1" rx="3.2290362953692124" ry="3.229036295369216" cx="6.0075093867334175" cy="6.05256570713394"/>
    <path id="path-2" opacity="1" fill-rule="evenodd" d="M4.790988735919925,10.73842302878603 C4.89612015018776,11.023779724655881 5.136420525657097,11.234042553191532 5.436795994993768,11.29411764705888 L5.436795994993768,11.444305381727215 C5.436795994993768,11.744680851063887 5.692115143929939,12.000000000000064 5.992490613266611,12.000000000000064 C6.2928660826032825,12.000000000000064 6.5481852315394535,11.744680851063887 6.5481852315394535,11.444305381727215 L6.5481852315394535,11.29411764705888 C6.848560700876126,11.249061326658385 7.103879849812296,11.023779724655881 7.193992490613297,10.73842302878603 L4.790988735919925,10.73842302878603Z"/>
    <rect id="rect-3" opacity="1" x="4.745932415519377" y="9.91239048811019" width="2.508135168961207" height="0.5556946182728497" rx="0" ry="0"/>
    <rect id="rect-4" opacity="1" x="4.745932415519377" y="9.011264080100148" width="2.508135168961207" height="0.5556946182728497" rx="0" ry="0"/>
    <path id="path-5" opacity="1" fill-rule="evenodd" d="M0.28535669586983464,5.722152690863595 C0.13516896120150063,5.722152690863595 0,5.842302878598257 0,6.007509386733432 C0,6.172715894868605 0.12015018773466729,6.292866082603268 0.28535669586983464,6.292866082603268 L1.682102628285341,6.292866082603268 C1.832290362953675,6.292866082603268 1.9674593241551754,6.172715894868605 1.9674593241551754,6.007509386733432 C1.9674593241551754,5.857321652065095 1.847309136420508,5.722152690863595 1.682102628285341,5.722152690863595 L0.28535669586983464,5.722152690863595Z"/>
    <path id="path-6" opacity="1" fill-rule="evenodd" d="M1.9524405506883458,1.682102628285378 C1.877346683354178,1.682102628285378 1.817271589486844,1.712140175219052 1.7571964956195096,1.7722152690863828 C1.6520650813516748,1.8773466833542245 1.6520650813516748,2.057571964956217 1.7571964956195096,2.162703379224059 L2.7484355444305235,3.1539424280350774 C2.8535669586983583,3.2590738423029193 3.033792240300361,3.2590738423029193 3.138923654568196,3.1539424280350774 C3.2440550688360306,3.048811013767236 3.2440550688360306,2.8685857321652435 3.138923654568196,2.763454317897401 L2.1476846057571817,1.7722152690863828 C2.1026282853566816,1.7121401752190348 2.0275344180225137,1.682102628285378 1.9524405506883458,1.682102628285378Z"/>
    <path id="path-7" opacity="1" fill-rule="evenodd" d="M6.007509386733425,0 C5.857321652065078,0 5.722152690863567,0.12015018773466185 5.722152690863567,0.2853566958698347 L5.722152690863567,1.6821026282853515 C5.722152690863567,1.832290362953687 5.842302878598243,1.967459324155186 6.007509386733425,1.967459324155186 C6.157697121401771,1.967459324155186 6.2928660826032825,1.847309136420524 6.2928660826032825,1.6821026282853515 L6.2928660826032825,0.2853566958698347 C6.2778473091364475,0.12015018773467893 6.157697121401771,0 6.007509386733425,0Z"/>
    <path id="path-8" opacity="1" fill-rule="evenodd" d="M10.047559449311647,1.682102628285378 C9.97246558197748,1.682102628285378 9.912390488110145,1.712140175219052 9.852315394242812,1.7722152690863828 L8.861076345431798,2.763454317897401 C8.755944931163963,2.8685857321652435 8.755944931163963,3.048811013767236 8.861076345431798,3.1539424280350774 C8.966207759699634,3.2590738423029193 9.146433041301636,3.2590738423029193 9.251564455569468,3.1539424280350774 L10.242803504380483,2.162703379224059 C10.347934918648317,2.057571964956217 10.347934918648317,1.8773466833542245 10.242803504380483,1.7722152690863828 C10.182728410513148,1.7121401752190348 10.122653316645815,1.682102628285378 10.047559449311647,1.682102628285378Z"/>
    <path id="path-9" opacity="1" fill-rule="evenodd" d="M10.332916145181477,5.722152690863595 C10.182728410513139,5.722152690863595 10.047559449311635,5.842302878598257 10.047559449311635,6.007509386733432 C10.047559449311635,6.157697121401768 10.167709637046304,6.292866082603268 10.332916145181477,6.292866082603268 L11.714643304130178,6.292866082603268 C11.864831038798515,6.292866082603268 12.00000000000002,6.172715894868605 12.00000000000002,6.007509386733432 C12.00000000000002,5.842302878598257 11.87984981226535,5.722152690863595 11.714643304130178,5.722152690863595 L10.332916145181477,5.722152690863595Z"/>
  </defs>
  <g opacity="1">
    <g opacity="1">
      <use xlink:href="#ellipse-1" fill="rgb(116,125,144)" fill-opacity="0.72"/>
    </g>
    <g opacity="1">
      <use xlink:href="#path-2" fill="rgb(116,125,144)" fill-opacity="0.72"/>
    </g>
    <g opacity="1">
      <use xlink:href="#rect-3" fill="rgb(116,125,144)" fill-opacity="0.72"/>
    </g>
    <g opacity="1">
      <use xlink:href="#rect-4" fill="rgb(116,125,144)" fill-opacity="0.72"/>
    </g>
    <g opacity="1">
      <use xlink:href="#path-5" fill="rgb(116,125,144)" fill-opacity="0.72"/>
    </g>
    <g opacity="1">
      <use xlink:href="#path-6" fill="rgb(116,125,144)" fill-opacity="0.72"/>
    </g>
    <g opacity="1">
      <use xlink:href="#path-7" fill="rgb(116,125,144)" fill-opacity="0.72"/>
    </g>
    <g opacity="1">
      <use xlink:href="#path-8" fill="rgb(116,125,144)" fill-opacity="0.72"/>
    </g>
    <g opacity="1">
      <use xlink:href="#path-9" fill="rgb(116,125,144)" fill-opacity="0.72"/>
    </g>
  </g>
</svg>